Categorical Response Variables, Marginal and Mixed Effect Models, and Review
…
Estimate a marginal logistic regression model using the
geeglm function that you can use to obtain odds ratios for
the effect of gender and race on the odds that an application will get a
call-back. Include an interaction between gender and race. Use first
name as your id variable and specify an exchangeable
correlation structure. The data will first need to be sorted by
firstname for using with the geeglm function.
You can do this using

resumeagg <- resumeagg %>% arrange(firstname)
resumeagg

# A tibble: 36 × 6
# Groups:   firstname, sex [36]
   firstname sex    race  callbacks applications sexrace         
   <chr>     <chr>  <chr>     <int>        <int> <fct>           
 1 Aisha     female black         4          180 female and black
 2 Allison   female white        22          232 female and white
 3 Anne      female white        20          242 female and white
 4 Brad      male   white        10           63 male and white  
 5 Brendan   male   white         5           65 male and white  
 6 Brett     male   white         4           59 male and white  
 7 Carrie    female white        22          168 female and white
 8 Darnell   male   black         2           42 male and black  
 9 Ebony     female black        20          208 female and black
10 Emily     female white        18          227 female and white
# … with 26 more rows
…
