Wednesday, Jan 18
…
This shows estimates of the parameters \(\beta_0\), \(\beta_1\), and \(\beta_2\), and some other information
concerning inferences for those parameters (more on that
later).

Example: Here are the data and a specified linear
model for the study on dopamine activity in schizophrenics. The data are
available in the BSDA package.

library(BSDA) # install with install.packages("BSDA")
Dopamine

# A tibble: 25 × 2
     dbh group       
   <int> <chr>       
 1   104 nonpsychotic
 2   105 nonpsychotic
 3   112 nonpsychotic
 4   116 nonpsychotic
 5   130 nonpsychotic
 6   145 nonpsychotic
 7   154 nonpsychotic
 8   156 nonpsychotic
 9   170 nonpsychotic
10   180 nonpsychotic
# … with 15 more rows
…
